0.34,0.45,0.56,0.67,0.78,0.89,1.0,1.08,1.18,1.28,1.38
28.0,24.0,25.0,23.0,30.0,33.0,36.0,38.0,40.0,41.0,41.0
27.0,28.0,24.0,23.0,30.0,33.0,35.0,38.0,39.0,40.0,42.0
27.0,28.0,28.0,23.0,29.0,33.0,36.0,37.0,39.0,41.0,42.0
28.0,28.0,27.0,24.0,30.0,32.0,36.0,37.0,39.0,40.0,42.0
27.0,27.0,27.0,23.0,30.0,34.0,36.0,37.0,39.0,41.0,42.0
28.0,27.0,27.0,23.0,30.0,33.0,35.0,37.0,39.0,41.0,43.0
28.0,28.0,26.0,23.0,28.0,34.0,36.0,37.0,39.0,40.0,42.0
28.0,27.0,27.0,23.0,30.0,34.0,36.0,37.0,39.0,41.0,43.0
27.0,28.0,28.0,23.0,29.0,33.0,35.0,37.0,39.0,41.0,41.0
28.0,28.0,27.0,23.0,25.0,33.0,36.0,37.0,39.0,41.0,42.0
27.0,28.0,27.0,23.0,29.0,34.0,36.0,38.0,39.0,39.0,42.0
29.0,28.0,29.0,23.0,28.0,33.0,35.0,38.0,39.0,41.0,42.0
25.0,28.0,27.0,23.0,30.0,34.0,36.0,38.0,39.0,41.0,42.0
28.0,28.0,25.0,24.0,29.0,33.0,36.0,37.0,39.0,41.0,41.0
28.0,28.0,27.0,24.0,30.0,33.0,36.0,38.0,39.0,41.0,42.0
28.0,28.0,27.0,23.0,29.0,33.0,35.0,38.0,39.0,41.0,42.0
27.0,29.0,29.0,23.0,30.0,33.0,36.0,37.0,39.0,40.0,42.0
28.0,29.0,27.0,24.0,30.0,33.0,33.0,36.0,39.0,39.0,43.0
29.0,26.0,28.0,23.0,29.0,33.0,36.0,37.0,38.0,40.0,42.0
28.0,31.0,27.0,23.0,30.0,33.0,36.0,37.0,39.0,40.0,41.0
28.0,28.0,27.0,23.0,30.0,33.0,36.0,38.0,39.0,41.0,42.0
28.0,27.0,28.0,23.0,29.0,33.0,35.0,37.0,39.0,40.0,42.0
28.0,27.0,28.0,23.0,31.0,33.0,36.0,38.0,39.0,41.0,41.0
29.0,27.0,27.0,23.0,28.0,33.0,35.0,37.0,39.0,40.0,42.0
28.0,27.0,27.0,24.0,30.0,33.0,35.0,37.0,38.0,40.0,41.0
29.0,27.0,28.0,23.0,29.0,33.0,36.0,38.0,39.0,41.0,40.0
28.0,27.0,27.0,24.0,30.0,33.0,36.0,38.0,39.0,41.0,42.0
29.0,28.0,28.0,24.0,31.0,33.0,36.0,38.0,38.0,40.0,42.0
28.0,28.0,27.0,23.0,29.0,33.0,36.0,37.0,39.0,41.0,43.0
29.0,26.0,28.0,24.0,25.0,33.0,36.0,37.0,39.0,41.0,43.0
28.0,28.0,28.0,26.0,30.0,33.0,35.0,37.0,39.0,41.0,42.0
28.0,26.0,27.0,24.0,30.0,33.0,36.0,37.0,38.0,41.0,42.0
28.0,28.0,28.0,23.0,30.0,33.0,35.0,38.0,39.0,39.0,42.0
29.0,27.0,27.0,24.0,27.0,32.0,36.0,38.0,38.0,40.0,42.0
29.0,28.0,28.0,23.0,29.0,33.0,36.0,36.0,39.0,40.0,42.0
29.0,28.0,27.0,24.0,30.0,33.0,34.0,37.0,39.0,41.0,43.0
30.0,29.0,27.0,25.0,30.0,33.0,36.0,37.0,39.0,41.0,42.0
29.0,28.0,28.0,23.0,30.0,33.0,36.0,37.0,39.0,40.0,42.0
28.0,27.0,28.0,23.0,30.0,32.0,36.0,37.0,39.0,40.0,41.0
29.0,28.0,27.0,24.0,30.0,33.0,35.0,37.0,39.0,41.0,43.0
