0.34,0.45,0.56,0.67,0.78,0.89,1.0,1.08,1.18,1.28,1.38
61.0,60.0,60.0,62.0,60.0,62.0,65.0,66.0,68.0,70.0,72.0
62.0,60.0,61.0,60.0,60.0,60.0,65.0,67.0,68.0,71.0,72.0
60.0,60.0,62.0,63.0,60.0,61.0,64.0,67.0,69.0,69.0,71.0
62.0,62.0,62.0,60.0,60.0,61.0,65.0,67.0,68.0,70.0,72.0
64.0,62.0,62.0,62.0,60.0,60.0,65.0,66.0,68.0,70.0,72.0
62.0,60.0,62.0,63.0,60.0,61.0,64.0,66.0,68.0,69.0,72.0
62.0,61.0,62.0,62.0,60.0,61.0,64.0,66.0,68.0,70.0,71.0
62.0,64.0,61.0,62.0,60.0,61.0,65.0,67.0,68.0,70.0,72.0
62.0,62.0,61.0,62.0,60.0,61.0,65.0,67.0,68.0,70.0,72.0
62.0,62.0,63.0,62.0,60.0,61.0,64.0,67.0,69.0,70.0,72.0
62.0,62.0,60.0,60.0,60.0,61.0,64.0,67.0,69.0,70.0,72.0
64.0,62.0,63.0,60.0,60.0,61.0,64.0,67.0,69.0,70.0,72.0
62.0,64.0,62.0,62.0,60.0,61.0,65.0,66.0,68.0,69.0,71.0
60.0,61.0,61.0,61.0,60.0,61.0,65.0,66.0,67.0,70.0,72.0
62.0,62.0,63.0,61.0,60.0,61.0,65.0,66.0,68.0,69.0,72.0
61.0,62.0,62.0,62.0,60.0,61.0,64.0,67.0,69.0,70.0,72.0
63.0,63.0,60.0,64.0,60.0,61.0,64.0,66.0,69.0,70.0,72.0
62.0,63.0,62.0,63.0,60.0,60.0,65.0,66.0,68.0,69.0,72.0
60.0,62.0,60.0,63.0,60.0,61.0,64.0,66.0,68.0,69.0,71.0
61.0,62.0,60.0,62.0,60.0,61.0,65.0,66.0,69.0,70.0,72.0
62.0,60.0,62.0,61.0,60.0,60.0,64.0,67.0,69.0,69.0,72.0
63.0,62.0,62.0,62.0,60.0,61.0,64.0,66.0,68.0,69.0,71.0
62.0,63.0,62.0,64.0,60.0,60.0,63.0,67.0,68.0,70.0,72.0
63.0,62.0,62.0,60.0,60.0,61.0,63.0,67.0,68.0,69.0,72.0
61.0,62.0,62.0,62.0,60.0,61.0,64.0,67.0,69.0,70.0,71.0
61.0,61.0,62.0,60.0,60.0,61.0,65.0,67.0,69.0,70.0,71.0
62.0,61.0,62.0,60.0,60.0,61.0,64.0,66.0,67.0,70.0,72.0
61.0,62.0,62.0,60.0,60.0,61.0,64.0,66.0,69.0,70.0,71.0
64.0,62.0,62.0,62.0,60.0,60.0,64.0,66.0,69.0,71.0,71.0
62.0,61.0,62.0,60.0,60.0,60.0,65.0,66.0,68.0,69.0,72.0
62.0,63.0,62.0,62.0,60.0,61.0,64.0,66.0,68.0,70.0,71.0
62.0,62.0,62.0,63.0,60.0,61.0,64.0,67.0,67.0,70.0,71.0
62.0,63.0,60.0,62.0,60.0,60.0,64.0,67.0,68.0,70.0,71.0
62.0,62.0,65.0,61.0,60.0,60.0,64.0,67.0,68.0,70.0,71.0
63.0,62.0,62.0,62.0,60.0,61.0,65.0,66.0,68.0,69.0,71.0
65.0,62.0,62.0,60.0,60.0,61.0,64.0,66.0,68.0,70.0,72.0
63.0,61.0,61.0,62.0,60.0,61.0,64.0,67.0,68.0,70.0,71.0
62.0,62.0,62.0,62.0,60.0,61.0,64.0,66.0,69.0,70.0,72.0
62.0,62.0,62.0,62.0,60.0,61.0,64.0,67.0,67.0,70.0,71.0
62.0,62.0,65.0,64.0,60.0,61.0,64.0,66.0,69.0,69.0,71.0
