0.34,0.45,0.56,0.67,0.78,0.89,1.0,1.08,1.18,1.28,1.38
104.0,104.0,104.0,105.0,105.0,104.0,105.0,104.0,105.0,105.0,105.0
104.0,105.0,104.0,104.0,105.0,104.0,104.0,105.0,105.0,106.0,105.0
106.0,105.0,105.0,106.0,105.0,105.0,105.0,104.0,106.0,105.0,104.0
106.0,105.0,104.0,105.0,104.0,106.0,105.0,105.0,105.0,104.0,104.0
107.0,104.0,105.0,105.0,105.0,104.0,105.0,105.0,105.0,104.0,104.0
105.0,105.0,104.0,106.0,105.0,106.0,104.0,107.0,105.0,106.0,105.0
105.0,104.0,105.0,105.0,106.0,105.0,105.0,105.0,104.0,105.0,105.0
105.0,105.0,105.0,105.0,106.0,105.0,105.0,104.0,105.0,105.0,105.0
105.0,105.0,105.0,105.0,105.0,105.0,106.0,105.0,106.0,106.0,105.0
104.0,105.0,106.0,105.0,105.0,105.0,104.0,106.0,105.0,105.0,104.0
105.0,104.0,106.0,106.0,105.0,105.0,105.0,106.0,105.0,104.0,105.0
105.0,106.0,106.0,106.0,105.0,104.0,106.0,106.0,105.0,105.0,105.0
104.0,105.0,105.0,104.0,106.0,105.0,106.0,105.0,105.0,105.0,105.0
105.0,105.0,106.0,105.0,104.0,105.0,105.0,105.0,105.0,106.0,107.0
106.0,104.0,105.0,105.0,105.0,104.0,105.0,105.0,105.0,105.0,105.0
105.0,105.0,104.0,105.0,105.0,106.0,104.0,107.0,104.0,105.0,105.0
104.0,104.0,104.0,105.0,105.0,105.0,106.0,105.0,106.0,105.0,105.0
107.0,105.0,105.0,105.0,106.0,105.0,104.0,106.0,107.0,104.0,105.0
105.0,106.0,105.0,104.0,105.0,105.0,104.0,105.0,106.0,105.0,105.0
106.0,105.0,105.0,105.0,105.0,104.0,104.0,105.0,105.0,105.0,104.0
106.0,104.0,105.0,105.0,105.0,104.0,106.0,104.0,105.0,104.0,106.0
105.0,105.0,105.0,105.0,105.0,105.0,105.0,104.0,107.0,104.0,106.0
104.0,105.0,104.0,106.0,105.0,105.0,106.0,107.0,104.0,105.0,105.0
106.0,104.0,104.0,106.0,106.0,104.0,105.0,104.0,104.0,107.0,105.0
104.0,105.0,105.0,105.0,105.0,105.0,104.0,105.0,107.0,105.0,105.0
105.0,104.0,106.0,107.0,105.0,105.0,104.0,105.0,105.0,105.0,104.0
106.0,104.0,105.0,105.0,105.0,104.0,104.0,107.0,104.0,104.0,105.0
105.0,107.0,106.0,104.0,105.0,106.0,105.0,105.0,105.0,104.0,106.0
105.0,104.0,105.0,105.0,104.0,104.0,105.0,105.0,104.0,105.0,105.0
105.0,104.0,107.0,105.0,104.0,105.0,105.0,104.0,105.0,105.0,104.0
105.0,106.0,106.0,105.0,105.0,105.0,104.0,106.0,104.0,105.0,105.0
105.0,105.0,106.0,105.0,106.0,104.0,104.0,104.0,105.0,105.0,104.0
105.0,105.0,105.0,105.0,105.0,105.0,104.0,104.0,104.0,106.0,105.0
106.0,106.0,105.0,104.0,105.0,105.0,105.0,105.0,104.0,104.0,104.0
106.0,107.0,104.0,105.0,106.0,104.0,105.0,105.0,105.0,106.0,106.0
104.0,104.0,106.0,105.0,104.0,105.0,106.0,105.0,106.0,107.0,105.0
106.0,104.0,104.0,105.0,105.0,105.0,105.0,106.0,105.0,104.0,104.0
106.0,105.0,105.0,106.0,104.0,105.0,104.0,105.0,105.0,105.0,105.0
105.0,104.0,104.0,106.0,105.0,105.0,104.0,104.0,104.0,104.0,105.0
105.0,107.0,107.0,106.0,105.0,105.0,106.0,104.0,105.0,104.0,105.0
